A tidymodels workflow
…
---

.pull-left[

```r
predict(rf_fit, test) %>% 
  bind_cols(select(test, 
                   truth = Class))
## # A tibble: 250 x 2
##    .pred_class truth
##    <fct>       <fct>
##  1 Good        Good 
##  2 Good        Bad  
##  3 Good        Good 
##  4 Good        Good 
##  5 Bad         Bad  
##  6 Good        Bad  
##  7 Good        Good 
##  8 Good        Good 
##  9 Bad         Bad  
## 10 Good        Good 
## # … with 240 more rows
```
]

.pull-right[

```r
predict(rf_fit, 
        test, 
        type = 'prob') %>% 
  bind_cols(select(test, 
                   truth = Class))
## # A tibble: 250 x 3
##    .pred_Bad .pred_Good truth
##        <dbl>      <dbl> <fct>
##  1     0.128      0.872 Good 
##  2     0.358      0.642 Bad  
##  3     0.156      0.844 Good 
##  4     0.427      0.573 Good 
##  5     0.801      0.199 Bad  
##  6     0.490      0.510 Bad  
##  7     0.403      0.597 Good 
##  8     0.410      0.590 Good 
##  9     0.673      0.327 Bad  
## 10     0.374      0.626 Good 
## # … with 240 more rows
```
…
