I have my data - now what?
…
.pull-right[
#**Relational Data Tables**  

#links to other tables

]

---

```r
spinal_encounters
```

```
## # A tibble: 6,050 x 7
##    encounter_id person_id  encounter_type   department_name    location_name      bmi days_from_dob_toen…
##           <dbl> <chr>      <chr>            <chr>              <chr>            <dbl> <chr>              
##  1  83663678717 2747100281 Hospital Encoun… AMC NEUROSCIENCES… UCH INPATIENT S…  33   22286              
##  2  80292709328 4620858514 Hospital Encoun… AMC ORTHO UNIT     UCH INPATIENT S…  22.8 22318              
##  3  84727340281 4511788528 Hospital Encoun… AMC NEUROSCIENCES… UCH INPATIENT S…  22.9 23744              
##  4  95192906386 4979543829 Hospital Encoun… AMC ORTHO UNIT     UCH INPATIENT S…  NA   8771               
##  5 102768904434 2626001295 Hospital Encoun… AMC NEUROSCIENCES… UCH INPATIENT S…  29.5 23504              
##  6  82639506120 4500849952 Hospital Encoun… AMC ORTHO UNIT     UCH INPATIENT S…  33.2 20600              
##  7 104357338125 4379369366 Hospital Encoun… AMC ORTHO UNIT     UCH INPATIENT S…  29.9 22215              
##  8  96331574374 4849352259 Hospital Encoun… AMC ORTHO UNIT     UCH INPATIENT S…  34.2 22335              
##  9  92267122540 4625068521 Hospital Encoun… AMC ORTHO UNIT     UCH INPATIENT S…  30.7 22129              
## 10  99039969046 4676043659 Hospital Encoun… AMC ORTHO UNIT     UCH INPATIENT S…  32.2 19671              
## # … with 6,040 more rows
```

---

```r
spinal_patients
```

```
## # A tibble: 6,050 x 9
##    person_id race  ethnicity sex   financial_class zip   age_asof_201601… marijuana_usage…
##    <chr>     <chr> <chr>     <chr> <chr>           <chr>            <dbl> <chr>           
##  1 27471002… Whit… Hispanic  Male  Managed Care    806                 60 N               
##  2 46208585… Whit… Non-Hisp… Fema… Medicare        804                 60 N               
##  3 45117885… Whit… Non-Hisp… Fema… Self-pay        535                 64 N               
##  4 49795438… Blac… Non-Hisp… Fema… Self-pay        802                 22 N               
##  5 26260012… Blac… Non-Hisp… Male  Special Accoun… 802                 62 N               
##  6 45008499… Whit… Non-Hisp… Fema… Self-pay        802                 55 N               
##  7 43793693… Whit… Non-Hisp… Male  Managed Care    800                 59 N               
##  8 48493522… Whit… Non-Hisp… Fema… Medicare        800                 59 Y               
##  9 46250685… Whit… Non-Hisp… Male  Self-pay        800                 59 Y               
## 10 46760436… Whit… Non-Hisp… Male  Self-pay        801                 52 Y               
## # … with 6,040 more rows, and 1 more variable: marijuana_dx_hx <chr>
```

---

```r
all_enc_spinal_pts
```

```
## # A tibble: 552,829 x 7
##    person_id  encounter_id encounter_type    department_name   location_name      bmi days_from_dob_toen…
##    <chr>             <dbl> <chr>             <chr>             <chr>            <dbl> <chr>              
##  1 2747100281  83071307983 Nurse Triage      WINDSOR FAM MED … UCHEALTHMG NORTH    NA 22265              
##  2 2747100281  88085989701 Hospital Encount… AMC SPNE/PAIN RA… UCH OUTPATIENT …    NA 22392              
##  3 2747100281  83359750201 Orders Only       WINDSOR FAM MED … UCHEALTHMG NORTH    NA 22273              
##  4 2747100281  90244644130 Rehab Therapy Tr… OLD PKVIEW PT OP  UCHEALTHMG NORTH    NA 22462              
##  5 2747100281  90244645084 Rehab Therapy Tr… OLD PKVIEW PT OP  UCHEALTHMG NORTH    NA 22464              
##  6 2747100281  83355410450 Nurse Triage      WINDSOR FAM MED … UCHEALTHMG NORTH    NA 22273              
##  7 2747100281  90244642222 Appointment       OLD PKVIEW PT OP  UCHEALTHMG NORTH    NA 22455              
##  8 2747100281  88087721213 Ancillary Orders  AMC SPINE CENTER… UCH OUTPATIENT …    NA 22392              
##  9 2747100281  83793910355 Anesthesia        AMC AIP PERIOP S… UCH INPATIENT S…    NA 22286              
## 10 2747100281 100121375028 Hospital Encount… AMC SPNE/PAIN RA… UCH OUTPATIENT …    NA 22665              
## # … with 552,819 more rows
```

---

```r
allergy
```

```
## # A tibble: 9,424 x 2
##    person_id  name                               
##    <chr>      <chr>                              
##  1 2747100281 NO KNOWN DRUG ALLERGIES            
##  2 4620858514 IODINATED CONTRAST- ORAL AND IV DYE
##  3 4511788528 ADHESIVE                           
##  4 4979543829 AMOXICILLIN                        
##  5 4979543829 TREE NUTS                          
##  6 2626001295 SULFUR                             
##  7 4500849952 <NA>                               
##  8 4379369366 PREGABALIN                         
##  9 4379369366 ONDANSETRON HCL (PF)               
## 10 4849352259 ZOLPIDEM                           
## # … with 9,414 more rows
```

---

```r
allergy_class
```

```
## # A tibble: 804 x 2
##    name  drug 
##    <chr> <lgl>
##  1 DYE   FALSE
##  2 EGG   FALSE
##  3 CAMA  FALSE
##  4 CORN  FALSE
##  5 IRON  FALSE
##  6 MILK  FALSE
##  7 MOLD  FALSE
##  8 TALC  FALSE
##  9 COCOA FALSE
## 10 HONEY FALSE
## # … with 794 more rows
```

---

```r
inpatient_meds
```

```
## # A tibble: 155,723 x 23
##    person_id encounter_id Name  GenericName Strength OrderName Route Frequency MinimumDose MaximumDose
##    <chr>            <dbl> <chr> <chr>       <chr>    <chr>     <chr> <chr>           <dbl>       <dbl>
##  1 27471002…  83663678717 OXYC… oxyCODONE … 5 mg     oxyCODON… Oral  ONCE PRN            5          10
##  2 27471002…  83663678717 OXYC… oxyCODONE … 5 mg     oxyCODON… Oral  EVERY 4 …           5          20
##  3 27471002…  83663678717 OXYC… oxyCODONE … 5 mg     oxyCODON… Oral  EVERY 4 …           5          20
##  4 27471002…  83663678717 OXYC… oxyCODONE … 5 mg     oxyCODON… Oral  EVERY 4 …           5          20
##  5 27471002…  83663678717 OXYC… oxyCODONE … 5 mg     oxyCODON… Oral  EVERY 4 …           5          20
##  6 27471002…  83663678717 OXYC… oxyCODONE … 5 mg     oxyCODON… Oral  EVERY 4 …           5          20
##  7 27471002…  83663678717 OXYC… oxyCODONE … 5 mg     oxyCODON… Oral  EVERY 4 …           5          20
##  8 27471002…  83663678717 OXYC… oxyCODONE … 5 mg     oxyCODON… Oral  EVERY 4 …           5          20
##  9 27471002…  83663678717 OXYC… oxyCODONE … 5 mg     oxyCODON… Oral  EVERY 4 …           5          20
## 10 46208585…  80292709328 OXYC… oxyCODONE … 20 mg    oxyCODON… Oral  2 TIMES …          20          NA
## # … with 155,713 more rows, and 13 more variables: CalculatedMinimumDose <dbl>,
## #   CalculatedMaximumDose <dbl>, DoseUnit <chr>, CalculatedDoseUnit <chr>, NumberOfDoses <dbl>,
## #   admin_dose <dbl>, admin_dose_unit <chr>, admin_route <chr>, DepartmentName <chr>,
## #   days_from_dob_toprescription <chr>, days_from_dob_torelease <chr>,
## #   days_from_dob_toadministration <chr>, admin_time <time>
```
…
